Spatial Surplus Production Model Framework for Northern Shrimp Populations • sspm
…
The results of the discretization can also be explored with spm_patches() and spm_points().

spm_patches(bounds_voronoi)
#> Simple feature collection with 35 features and 3 fields
#> Geometry type: POLYGON
#> Dimension:     XY
#> Bounding box:  xmin: -64.18658 ymin: 46.00004 xmax: -46.6269 ymax: 60.84333
#> Geodetic CRS:  WGS 84
#> # A tibble: 35 × 4
#>    sfa   patch_id patch_area                                            geometry
#>  * <fct> <fct>        [km^2]                                       <POLYGON [°]>
#>  1 4     P1           31350. ((-61.49885 58.11503, -61.24738 58.14026, -60.7703…
#>  2 4     P2           11607. ((-60.77034 60.02342, -61.24738 58.14026, -59.6984…
#>  3 4     P3            4619. ((-59.37831 57.67423, -59.43377 57.71988, -59.4892…
#>  4 5     P4           13657. ((-56.7447 54.34709, -56.66417 54.34705, -56.66416…
#>  5 5     P5           14514. ((-59.6728 55.88317, -59.58696 55.95008, -58.97613…
#>  6 5     P6           15164. ((-58.97613 57.16068, -59.58696 55.95008, -57.4711…
#>  7 5     P7            6354. ((-57.48427 54.91192, -57.4711 55.3424, -59.58696 …
#>  8 5     P8            7935. ((-55 54.75, -54.37418 54.75322, -53.92907 54.7535…
#>  9 5     P9            5235. ((-56.72208 54.49769, -56.56636 55.50528, -56.6883…
#> 10 6     P10           9317. ((-52.69796 49.24956, -52.9605 49.75061, -54.76086…
#> # … with 25 more rows
spm_points(bounds_voronoi)
#> Simple feature collection with 120 features and 10 fields
#> Geometry type: POINT
#> Dimension:     XY
#> Bounding box:  xmin: -62.7333 ymin: 46.10625 xmax: -47.27537 ymax: 60.35241
#> Geodetic CRS:  WGS 84
#> # A tibble: 120 × 11
#> # Groups:   sfa [4]
#>    year_f sfa   weight_per_km2 temp_at_bottom lon_dec lat_dec   row uniqueID   
#>  * <fct>  <chr>      [kg/km^2]          <dbl>   <dbl>   <dbl> <int> <chr>      
#>  1 1995   7                0            1.45    -58.8    56.3     6 y1995s7r6  
#>  2 1995   5                0            0       -50.6    50.6    51 y1995s5r51 
#>  3 1996   7              759.           0.605   -55.5    50.2    69 y1996s7r69 
#>  4 1996   6            13293.           3.00    -53.4    46.4   100 y1996s6r100
#>  5 1996   5                0            0.934   -52.8    52.2   113 y1996s5r113
#>  6 1996   4             2050.           2.92    -53.1    50.8   125 y1996s4r125
#>  7 1997   7             1368.           0       -57.4    55.1   147 y1997s7r147
#>  8 1997   6               85.4          2.31    -50.7    47.7   176 y1997s6r176
#>  9 1997   4                0            5.18    -60.9    59.6   182 y1997s4r182
#> 10 1997   5             4535.           1.27    -51.5    49.3   206 y1997s5r206
#> # … with 110 more rows, and 3 more variables: geometry <POINT [°]>,
#> #   sfa_duplicate <fct>, area_sfa [km^2]
…
