…
<img src="man/figures/README-unnamed-chunk-9-1.png" width="100%" />

6.  The results of the discretization can also be explored with
    `spm_patches()` and `spm_points()`.

``` r
spm_patches(bounds_voronoi)
#> Simple feature collection with 92 features and 3 fields
#> Geometry type: POLYGON
#> Dimension:     XY
#> Bounding box:  xmin: -64.18658 ymin: 46.00004 xmax: -46.6269 ymax: 60.84488
#> Geodetic CRS:  WGS 84
#> # A tibble: 92 × 4
#>    sfa   patch_id patch_area                                            geometry
#>  * <fct> <fct>        [km^2]                                       <POLYGON [°]>
#>  1 4     P1            5867. ((-62.56544 59.47292, -62.51885 60.2501, -62.42353…
#>  2 4     P2            6294. ((-61.15825 60.5856, -61.18083 60.61861, -61.16696…
#>  3 4     P3            1594. ((-61.98352 59.91756, -62.14032 59.90335, -62.3916…
#>  4 4     P4            1882. ((-61.60726 58.17744, -61.55968 58.21747, -61.5430…
#>  5 4     P5            1890. ((-61.54308 58.72455, -60.98005 58.90554, -60.9787…
#>  6 4     P6            2149. ((-62.81971 59.18792, -62.54312 59.42411, -62.5654…
#>  7 4     P7            2461. ((-61.55968 58.21747, -60.90082 58.30673, -60.7969…
#>  8 4     P8            1580. ((-60.85729 60.08226, -60.87677 60.07412, -61.2755…
#>  9 4     P9            7244. ((-60.30623 57.88979, -60.09616 58.23633, -60.1909…
#> 10 4     P10           1570. ((-59.93021 58.87649, -60.19091 58.62062, -60.0961…
#> # … with 82 more rows
spm_points(bounds_voronoi)
#> Simple feature collection with 120 features and 9 fields
#> Geometry type: POINT
#> Dimension:     XY
#> Bounding box:  xmin: -62.95014 ymin: 46.05739 xmax: -47.39935 ymax: 60.81292
#> Geodetic CRS:  WGS 84
#> # A tibble: 120 × 10
#> # Groups:   sfa [4]
#>    year_f weight_per_km2 temp_at_bottom lon_dec lat_dec   row uniqueID   
#>  * <fct>       [kg/km^2]          <dbl>   <dbl>   <dbl> <int> <chr>      
#>  1 1995            7117.          3.88    -61.7    60.0    21 y1995s6r21 
#>  2 1995               0           2.33    -59.2    57.3    23 y1995s6r23 
#>  3 1995               0           1.03    -54.0    46.1    40 y1995s6r40 
#>  4 1996             553.          2.97    -59.5    56.0    65 y1996s7r65 
#>  5 1996            6538.          4.42    -61.3    60.8   102 y1996s5r102
#>  6 1996            2427.          2.17    -55.4    54.4   105 y1996s5r105
#>  7 1996            1945.          0       -48.4    47.2   138 y1996s4r138
#>  8 1997               0           0.649   -55.3    54.7   144 y1997s7r144
#>  9 1997            1430.          0       -54.4    50.2   149 y1997s7r149
#> 10 1997               0           5.18    -60.9    59.6   182 y1997s4r182
#> # … with 110 more rows, and 3 more variables: geometry <POINT [°]>, sfa <fct>,
#> #   area_sfa [km^2]
```
…
