Perform voronoi tesselation — tesselate_voronoi • sspm
…
    Examples

data(borealis_simulated, package = "sspm")
data(sfa_boundaries, package = "sspm")
tesselate_voronoi(sfa_boundaries, with = borealis, sample_surface = TRUE,
                  boundary = "sfa", nb_samples = 10)
#> $patches
#> Simple feature collection with 39 features and 3 fields
#> Geometry type: POLYGON
#> Dimension:     XY
#> Bounding box:  xmin: -64.18658 ymin: 46.00004 xmax: -46.6269 ymax: 60.84469
#> Geodetic CRS:  WGS 84
#> # A tibble: 39 × 4
#>    sfa   patch_id patch_area                                            geometry
#>  * <chr> <fct>        [km^2]                                       <POLYGON [°]>
#>  1 4     P1            4945. ((-63.30252 59.8266, -61.99686 60.78698, -61.99048…
#>  2 4     P2            4319. ((-60.3537 59.58289, -60.72773 58.94674, -60.59988…
#>  3 4     P3            8328. ((-62.41861 58.76298, -61.87269 60.47405, -61.9968…
#>  4 4     P4            3904. ((-61.99048 60.84469, -61.99686 60.78698, -61.8726…
#>  5 4     P5            8916. ((-60.91758 57.68787, -60.93575 57.69861, -60.9357…
#>  6 4     P6            5286. ((-62.22483 58.58756, -61.71019 59.02802, -61.5420…
#>  7 4     P7            3228. ((-61.39129 59.18604, -60.77284 59.86003, -61.5420…
#>  8 4     P8            3312. ((-60.54774 59.91234, -60.77284 59.86003, -61.3912…
#>  9 4     P9            5337. ((-60.18751 57.68945, -60.17467 57.68869, -60.1741…
#> 10 5     P10          11209. ((-59.07859 55.37257, -58.945 55.46567, -58.58355 …
#> # … with 29 more rows
…
