Perform delaunay triangulation — triangulate_delaunay • sspm
…
    Examples

data(borealis_simulated, package = "sspm")
data(sfa_boundaries, package = "sspm")
triangulate_delaunay(sfa_boundaries, with = borealis, sample_surface = TRUE,
                     boundary = "sfa", nb_samples = 10)
#> $patches
#> Simple feature collection with 70 features and 3 fields
#> Geometry type: MULTIPOLYGON
#> Dimension:     XY
#> Bounding box:  xmin: -62.90629 ymin: 46.20124 xmax: -47.38968 ymax: 60.62645
#> Geodetic CRS:  WGS 84
#> # A tibble: 70 × 4
#>    sfa   patch_id patch_area                                            geometry
#>  * <chr> <fct>        [km^2]                                  <MULTIPOLYGON [°]>
#>  1 4     P1         3887.    (((-60.6055 57.77918, -62.32017 59.94914, -61.1529…
#>  2 4     P2            9.49  (((-55.93264 50.03867, -56.20651 50.58302, -56.208…
#>  3 4     P3           15.9   (((-60.54276 57.694, -60.59819 57.76928, -60.62298…
#>  4 4     P4            0.299 (((-55.81365 49.79706, -55.73917 49.64616, -55.813…
#>  5 4     P5          448.    (((-60.55599 57.66733, -58.87251 55.22493, -58.869…
#>  6 4     P6         1502.    (((-61.15296 60.41194, -62.35403 59.93536, -61.786…
#>  7 4     P7         1654.    (((-61.42425 59.70269, -60.87372 59.19752, -61.152…
#>  8 4     P8         1143.    (((-61.78665 59.75678, -62.35403 59.93536, -61.000…
#>  9 4     P9         1779.    (((-60.4377 58.93765, -61.00018 58.84686, -59.8071…
#> 10 4     P10        1469.    (((-60.87372 59.19752, -60.4377 58.93765, -61.1529…
#> # ℹ 60 more rows
…
